{
  "builders": [
    {
      "boot_command": "<tab> text ks=http://{{ .HTTPIP }}:{{ .HTTPPort}}/ks.cfg<enter><wait>",
      "boot_wait": "10s",
      "guest_additions_path": "VBoxGuestAdditions_{{.Version}}.iso",
      "guest_os_type": "RedHat_64",
      "hard_drive_interface": "sata",
      "http_directory": "./kickstart/centos8/",
      "iso_checksum": "md5:2a3f98b6eb50326cf69257c5c5fc7e35",
      "iso_url": "http://mirror.hostnet.nl/centos/8.3.2011/isos/x86_64/CentOS-8.3.2011-x86_64-dvd1.iso",
      "shutdown_command": "echo 'vagrant' | sudo -S /sbin/halt -h -p",
      "ssh_password": "vagrant",
      "ssh_timeout": "6000s",
      "ssh_username": "vagrant",
      "type": "virtualbox-iso",
      "vboxmanage": [
        [
          "modifyvm",
          "{{.Name}}",
          "--memory",
          "2048"
        ],
        [
          "modifyvm",
          "{{.Name}}",
          "--usb",
          "off"
        ],
        [
          "modifyvm",
          "{{.Name}}",
          "--audio",
          "none"
        ],
        [
          "modifyvm",
          "{{.Name}}",
          "--cpus",
          "2"
        ]
      ],
      "vm_name": "centos_8_3_x86_64_yb"
    }
  ],
  "provisioners": [
    {
      "type": "shell", 
      "scripts": [
        "./scripts/centos8_yb/sshd.sh",
        "./scripts/centos8_yb/yum_repo_set.sh",
        "./scripts/centos8_yb/vagrant_insecure_pubkey.sh",
        "./scripts/centos8_yb/virtualbox_guest_additions.sh",
        "./scripts/centos8_yb/yb_1_yum.sh",
        "./scripts/centos8_yb/yb_2_user_group.sh",
        "./scripts/centos8_yb/yb_3_limits.sh",
        "./scripts/centos8_yb/yb_4_tuned.sh",
        "./scripts/centos8_yb/yb_5_software.sh"
      ],
      "execute_command": "echo 'vagrant' | {{.Vars}} sudo -E -S bash '{{.Path}}'",
      "expect_disconnect": "true"
    },
    {
      "type": "breakpoint",
      "disable": "true"
    },
    {
      "type": "shell", 
      "scripts": [
        "./scripts/centos8_yb/cleanup.sh",
        "./scripts/centos8_yb/zero_diskspace.sh"
      ],
      "execute_command": "echo 'vagrant' | {{.Vars}} sudo -E -S bash '{{.Path}}'",
      "expect_disconnect": "true"
    }
  ],
  "post-processors": [
    {
      "keep_input_artifact": false,
      "output": "./box/centos_8_3_2011_x86_64_yb_rf3_{{.Provider}}.box",
      "type": "vagrant",
      "vagrantfile_template": "./vagrant/centos8_yb_rf3/Vagrantfile"
    }
  ]
}

