{
  "builders": [
    {
      "boot_command": "<tab> text ks=http://{{ .HTTPIP }}:{{ .HTTPPort}}/ks.cfg<enter>",
      "boot_wait": "10s",
      "guest_additions_path": "VBoxGuestAdditions_{{.Version}}.iso",
      "guest_os_type": "Oracle_64",
      "hard_drive_interface": "sata",
      "http_directory": "./kickstart/ol7/",
      "iso_checksum": "md5:41d1e84688c115215b445b7cfcc51d82",
      "iso_url": "http://public-yum.oracle.com/ISOS/OracleLinux/OL7/u9/x86_64/OracleLinux-R7-U9-Server-x86_64-dvd.iso",
      "shutdown_command": "echo 'vagrant' | sudo -S /sbin/halt -h -p",
      "ssh_password": "vagrant",
      "ssh_timeout": "6000s",
      "ssh_username": "vagrant",
      "type": "virtualbox-iso",
      "vboxmanage": [
        [
          "modifyvm",
          "{{.Name}}",
          "--memory",
          "512"
        ],
        [
          "modifyvm",
          "{{.Name}}",
          "--usb",
          "off"
        ],
        [
          "modifyvm",
          "{{.Name}}",
          "--audio",
          "none"
        ],
        [
          "modifyvm",
          "{{.Name}}",
          "--cpus",
          "1"
        ]
      ],
      "vm_name": "ol7"
    }
  ],
  "post-processors": [
    {
      "keep_input_artifact": false,
      "output": "./box/oracle_linux_7_9_x86_64_{{.Provider}}.box",
      "type": "vagrant",
      "vagrantfile_template": "./vagrant/ol79/Vagrantfile"
    }
  ],
  "provisioners": [
    {
      "execute_command": "echo 'vagrant' | {{.Vars}} sudo -E -S bash '{{.Path}}'",
      "expect_disconnect": "true",
      "scripts": [
        "./scripts/ol7/dns_fix.sh",
        "./scripts/ol7/motd.sh",
        "./scripts/ol7/sshd.sh",
        "./scripts/ol7/ol79_repo_set.sh",
        "./scripts/ol7/vagrant_insecure_pubkey.sh",
        "./scripts/ol7/virtualbox_guest_additions.sh",
        "./scripts/ol7/cleanup.sh",
        "./scripts/ol7/zero_diskspace.sh"
      ],
      "type": "shell"
    }
  ]
}

