{
  "builders": [ {
      "type": "virtualbox-iso",
      "guest_os_type": "Oracle_64",
      "iso_url": "http://public-yum.oracle.com/ISOS/OracleLinux/OL8/u2/x86_64/OracleLinux-R8-U2-x86_64-dvd.iso",
      "iso_checksum": "e6756b82048d2378213d05bda9e53b44",
      "iso_checksum_type": "md5",
      "ssh_username": "vagrant",
      "ssh_password": "vagrant",
      "ssh_wait_timeout": "6000s",
      "vm_name": "ol8",
      "http_directory": "./kickstart/ol8/",
      "boot_wait": "10s",      
      "boot_command": "<tab> text ks=http://{{ .HTTPIP }}:{{ .HTTPPort}}/ks.cfg<enter><wait>",
      "shutdown_command": "echo 'vagrant' | sudo -S /sbin/halt -h -p",
      "guest_additions_path": "VBoxGuestAdditions_{{.Version}}.iso",
      "hard_drive_interface": "sata",
      "vboxmanage": [
        [ "modifyvm", "{{.Name}}", "--memory", "2048" ],
        [ "modifyvm", "{{.Name}}", "--usb", "off" ],
        [ "modifyvm", "{{.Name}}", "--audio", "none" ],
        [ "modifyvm", "{{.Name}}", "--cpus", "1" ]
      ]
    } ],
  "post-processors": [ {
      "keep_input_artifact": false,
      "output": "./box/oracle_linux_8_2_x86_64_{{.Provider}}.box",
      "type": "vagrant",
      "vagrantfile_template": "./vagrant/ol82/Vagrantfile"
    } ],
  "provisioners": [ {
      "execute_command": "echo 'vagrant' | {{.Vars}} sudo -E -S bash '{{.Path}}'",
      "type": "shell",
      "scripts": [
        "./scripts/ol8/dns_fix.sh",
        "./scripts/ol8/motd.sh",
        "./scripts/ol8/sshd.sh",
        "./scripts/ol8/ol82_repo_set.sh",
        "./scripts/ol8/vagrant_insecure_pubkey.sh",
        "./scripts/ol8/virtualbox_guest_additions_ol82.sh",
        "./scripts/ol8/cleanup.sh",
        "./scripts/ol8/zero_diskspace.sh"
      ],
      "expect_disconnect": "true"
    } ]
}
